Cleaning Data for Effective Data Science
…
%%capture --no-stdout err
%%R
humans <- read_csv('data/humans-names.csv')
humans

── Column specification ──────────────────────────────────────────────────────────────────
cols(
  Name = col_character(),
  Height = col_double(),
  Weight = col_double()
)

# A tibble: 25,000 x 3
   Name      Height Weight
   <chr>      <dbl>  <dbl>
 1 James       167.   64.8
 2 David       182.   78.3
 3 Barbara     176.   87.8
 4 John        173.   81.6
 5 Michael     172.   82.8
 6 William     174.   70.7
 7 Elizabeth   177.   81.2
 8 Joseph      178.   78.3
 9 Jessica     172.   64.5
10 William     170.   69.2
# … with 24,990 more rows
…
%%R
# Make the column Name into a factor variable
humans <- mutate_at(humans, vars(Name), factor) 

# Any values occurring fewer than 100 times will be 
# aggregated under then factor level "UNCOMMON"
humans['Name'] <- fct_lump_min(humans$Name, min = 100, 
                               other_level = "UNCOMMON")
humans

# A tibble: 25,000 x 3
   Name      Height Weight
   <fct>      <dbl>  <dbl>
 1 James       167.   64.8
 2 David       182.   78.3
 3 Barbara     176.   87.8
 4 John        173.   81.6
 5 Michael     172.   82.8
 6 William     174.   70.7
 7 Elizabeth   177.   81.2
 8 Joseph      178.   78.3
 9 Jessica     172.   64.5
10 William     170.   69.2
# … with 24,990 more rows
…
 [1] "Barbara"   "David"     "Elizabeth" "James"     "Jennifer"  "Jessica"  
 [7] "John"      "Jon"       "Joseph"    "Linda"     "Marie"     "Mary"     
[13] "Michael"   "Patricia"  "Richard"   "Robert"    "Susan"     "William"  
[19] "UNCOMMON" 

        Here again, not all that much has changed in the tibble API. The ability to use fct_lump_min()
            and
            similar functions is specific to factor columns, but accessing them remains the same as before (just
            faster).

%%R
humans %>% filter(Name == "UNCOMMON")

# A tibble: 417 x 3
   Name     Height Weight
   <fct>     <dbl>  <dbl>
 1 UNCOMMON   172.   76.5
 2 UNCOMMON   167.   60.3
 3 UNCOMMON   182.   85.2
 4 UNCOMMON   176.   72.3
 5 UNCOMMON   174.   82.1
 6 UNCOMMON   170.   66.8
 7 UNCOMMON   171.   60.0
 8 UNCOMMON   171.   73.9
 9 UNCOMMON   171.   80.4
10 UNCOMMON   177.   73.3
# … with 407 more rows
…
